[
    {
        "icon":"http://appcdn.puamap.com/pc/uploads/firstpage/201712/201712271421077823.thumbnail.jpg",
        "title":"私房摄影：妹子们的拍片代价是肉偿？",
        "author":"浪迹团队",
        "create":"2017-12-27",
        "type":"qita",
        "id":16245,
        "desc":"这是一家装潢精致的情侣酒店。正对着前台的房间里，coser抱着衣服，纠结的看了一眼洗手间的透明玻璃门，想请摄影师在门外等候自己换好衣服。这是他们约好的一次“私房”拍摄"
    },
    {
        "icon":"http://appcdn.puamap.com/pc/uploads/firstpage/201712/201712261535052898.thumbnail.jpg",
        "title":"知乎豆瓣——文艺青年的意大利炮台",
        "url":"/zixun/lilun/16236",
        "author":"浪迹团队",
        "create":"2017-12-27",
        "type":"lilun",
        "id":16236,
        "desc":"如今刷个热门微博，除了满屏“点红心+微信”的卖片营销，甚至还有老司机暗语、大号营销，小号售卖的新型套路"
    },
    {
        "icon":"http://appcdn.puamap.com/pc/uploads/firstpage/201712/201712261528042925.thumbnail.jpg",
        "title":"圣诞分手：女朋友被骂了3年失声痛哭，男人到底应该怎么做",
        "url":"/zixun/lilun/16235",
        "author":"浪迹团队",
        "create":"2017-12-26",
        "type":"lilun",
        "id":16235,
        "desc":"正是在前一小时，古力娜扎的工作室突然发出了上面这段文字，宣布她与张翰二人已经和平分手"
    },
    {
        "icon":"http://appcdn.puamap.com/pc/uploads/firstpage/201712/201712261339342028.thumbnail.jpg",
        "title":"“绿茶婊”的芳华，赔上了“老实人”的青春",
        "url":"/zixun/qita/16234",
        "author":"浪迹团队",
        "create":"2017-12-26",
        "type":"qita",
        "id":16234,
        "desc":"在电影院里，很多因为《芳华》哭得泪流满面的人，当你问起原因，他们会说：“不知道，也许是有了共鸣吧。”那样的共鸣，自然不是因为那些70年代就嫌弃饺子难吃的荒唐青春，也不可能是英雄与英雄之间的惺惺相惜，我想，共鸣是来自感情上曾经遭受的苦难"
    }
]